{
	"info": {
		"_postman_id": "16b4b7b2-da89-487e-a2ac-a170c91f9eae",
		"name": "Test личное дело персонажа",
		"schema": "https://schema.getpostman.com/json/collection/v2.1.0/collection.json",
		"_exporter_id": "13735753"
	},
	"item": [
		{
			"name": "post запросы",
			"item": [
				{
					"name": "Создание пользователя django",
					"event": [
						{
							"listen": "test",
							"script": {
								"exec": [
									"pm.test(\"Django пользователь создан\", function () {\r",
									"    pm.response.to.have.status(201);\r",
									"});"
								],
								"type": "text/javascript"
							}
						}
					],
					"request": {
						"method": "POST",
						"header": [],
						"body": {
							"mode": "formdata",
							"formdata": [
								{
									"key": "name",
									"value": "{{user}}",
									"type": "text"
								},
								{
									"key": "passwd",
									"value": "{{passwd}}",
									"type": "text"
								}
							]
						},
						"url": {
							"raw": "http://test:81/api/aut/token/user",
							"protocol": "http",
							"host": [
								"test"
							],
							"port": "81",
							"path": [
								"api",
								"aut",
								"token",
								"user"
							]
						}
					},
					"response": []
				},
				{
					"name": "Получение токена",
					"event": [
						{
							"listen": "test",
							"script": {
								"exec": [
									"pm.test(\"Токен авториации получен\", () => {\r",
									"\r",
									"const responseJson = pm.response.json();\r",
									"pm.environment.set(\"Authorization\", responseJson.access);\r",
									"console.log(responseJson);\r",
									"console.log(responseJson.access);\r",
									"});\r",
									"pm.test(\"Статус код 200\", function () {\r",
									"    pm.response.to.have.status(200);\r",
									"});\r",
									""
								],
								"type": "text/javascript"
							}
						}
					],
					"request": {
						"method": "POST",
						"header": [],
						"body": {
							"mode": "formdata",
							"formdata": [
								{
									"key": "username",
									"value": "{{user}}",
									"type": "text"
								},
								{
									"key": "password",
									"value": "{{passwd}}",
									"type": "text"
								}
							]
						},
						"url": {
							"raw": "http://test:81/api/authorization/token/",
							"protocol": "http",
							"host": [
								"test"
							],
							"port": "81",
							"path": [
								"api",
								"authorization",
								"token",
								""
							]
						}
					},
					"response": []
				},
				{
					"name": "Создание персонажа",
					"event": [
						{
							"listen": "test",
							"script": {
								"exec": [
									"pm.test(\"Кандидат создан\", function () {\r",
									"    pm.response.to.have.status(201);\r",
									"});"
								],
								"type": "text/javascript"
							}
						}
					],
					"request": {
						"auth": {
							"type": "bearer",
							"bearer": [
								{
									"key": "token",
									"value": "{{Authorization}}",
									"type": "string"
								}
							]
						},
						"method": "POST",
						"header": [],
						"body": {
							"mode": "formdata",
							"formdata": [
								{
									"key": "first_name",
									"value": "{{person_name}}",
									"type": "text"
								},
								{
									"key": "last_name",
									"value": "Иванов",
									"type": "text"
								},
								{
									"key": "patronymic",
									"value": "Иванович",
									"description": " ",
									"type": "text"
								},
								{
									"key": "born",
									"value": "2000-11-10",
									"type": "text"
								},
								{
									"key": "email",
									"value": "test@yandex.ru",
									"type": "text"
								}
							]
						},
						"url": {
							"raw": "http://test:81/api/candidates/",
							"protocol": "http",
							"host": [
								"test"
							],
							"port": "81",
							"path": [
								"api",
								"candidates",
								""
							]
						}
					},
					"response": []
				},
				{
					"name": "Создание курсов",
					"event": [
						{
							"listen": "test",
							"script": {
								"exec": [
									"pm.test(\"Курсы для кандидата добавлены\", function () {\r",
									"    pm.response.to.have.status(201);\r",
									"});"
								],
								"type": "text/javascript"
							}
						}
					],
					"request": {
						"auth": {
							"type": "bearer",
							"bearer": [
								{
									"key": "token",
									"value": "{{Authorization}}",
									"type": "string"
								}
							]
						},
						"method": "POST",
						"header": [],
						"body": {
							"mode": "formdata",
							"formdata": [
								{
									"key": "org_name",
									"value": "Yandex Practicum",
									"type": "text"
								},
								{
									"key": "course_name",
									"value": "Qa ",
									"type": "text"
								},
								{
									"key": "year",
									"value": "2021",
									"type": "text"
								}
							]
						},
						"url": {
							"raw": "http://test:81/api/candidates/1/courses/",
							"protocol": "http",
							"host": [
								"test"
							],
							"port": "81",
							"path": [
								"api",
								"candidates",
								"1",
								"courses",
								""
							]
						}
					},
					"response": []
				},
				{
					"name": "Создание образования",
					"event": [
						{
							"listen": "test",
							"script": {
								"exec": [
									"pm.test(\"Образование для кандидата добавлено\", function () {\r",
									"    pm.response.to.have.status(201);\r",
									"});"
								],
								"type": "text/javascript"
							}
						}
					],
					"request": {
						"auth": {
							"type": "bearer",
							"bearer": [
								{
									"key": "token",
									"value": "{{Authorization}}",
									"type": "string"
								}
							]
						},
						"method": "POST",
						"header": [],
						"body": {
							"mode": "formdata",
							"formdata": [
								{
									"key": "university",
									"value": "томский политехнический университет",
									"type": "text"
								},
								{
									"key": "specialty",
									"value": "Ахс",
									"type": "text"
								},
								{
									"key": "type_education",
									"value": "Магистратура",
									"type": "text"
								},
								{
									"key": "average_score",
									"value": "4.7",
									"type": "text"
								},
								{
									"key": "diplom_topic",
									"value": "разработка ",
									"type": "text"
								},
								{
									"key": "end_study",
									"value": "2019",
									"type": "text"
								}
							]
						},
						"url": {
							"raw": "http://test:81/api/candidates/1/educations/",
							"protocol": "http",
							"host": [
								"test"
							],
							"port": "81",
							"path": [
								"api",
								"candidates",
								"1",
								"educations",
								""
							]
						}
					},
					"response": []
				}
			]
		},
		{
			"name": "get запросы",
			"item": [
				{
					"name": "проверка  персонажа",
					"event": [
						{
							"listen": "test",
							"script": {
								"exec": [
									"pm.test(\"проверка value \", () => {\r",
									"  const responseJson = pm.response.json();\r",
									"  pm.expect(responseJson.first_name).to.eql(pm.environment.get('person_name'));\r",
									"  pm.expect(responseJson.last_name).to.eql('Иванов');\r",
									"  pm.expect(responseJson.patronymic).to.eql('Иванович');\r",
									"  pm.expect(responseJson.born).to.eql('2000-11-10');\r",
									"  pm.expect(responseJson.email).to.eql('test@yandex.ru');\r",
									"});\r",
									"pm.test(\"проверка type\", () => {\r",
									"    //parse the response JSON and test three properties\r",
									"    const responseJson = pm.response.json();\r",
									"    pm.expect(responseJson.first_name).to.be.a('string');\r",
									"    pm.expect(responseJson.first_name).to.be.a('string');\r",
									"  pm.expect(responseJson.last_name).to.be.a('string');\r",
									"  pm.expect(responseJson.patronymic).to.be.a('string');\r",
									"  pm.expect(responseJson.born).to.be.a('string');\r",
									"  pm.expect(responseJson.email).to.be.a('string');\r",
									"    \r",
									"});\r",
									"pm.test(\"проверка name\",() => {\r",
									"  pm.expect(pm.response.text()).to.include(\"id\");\r",
									"  pm.expect(pm.response.text()).to.include(\"first_name\");\r",
									"  pm.expect(pm.response.text()).to.include(\"patronymic\");\r",
									"  pm.expect(pm.response.text()).to.include(\"born\");\r",
									"  pm.expect(pm.response.text()).to.include(\"email\");\r",
									"});\r",
									"\r",
									"pm.test(\"Content-Type is located in the header\", () => {\r",
									"  pm.response.to.have.header(\"Content-Type\");\r",
									"});\r",
									"\r",
									"pm.test(\"Content-Type is equals 'application/json' \", () => {\r",
									"  pm.expect(pm.response.headers.get('Content-Type')).to.eql('application/json');\r",
									"});\r",
									""
								],
								"type": "text/javascript"
							}
						}
					],
					"request": {
						"auth": {
							"type": "noauth"
						},
						"method": "GET",
						"header": [],
						"url": {
							"raw": "http://test:81/api/candidates/1",
							"protocol": "http",
							"host": [
								"test"
							],
							"port": "81",
							"path": [
								"api",
								"candidates",
								"1"
							]
						}
					},
					"response": []
				},
				{
					"name": "проверка курсы",
					"event": [
						{
							"listen": "test",
							"script": {
								"exec": [
									"pm.test(\"проверка value \", () => {\r",
									"  const responseJson = pm.response.json();\r",
									"  pm.expect(responseJson.org_name).to.eql('Yandex Practicum');\r",
									"  pm.expect(responseJson.course_name).to.eql('Qa authomatical');\r",
									"  pm.expect(responseJson.year).to.eql(2022);\r",
									"});\r",
									"pm.test(\"проверка type\", () => {\r",
									"    //parse the response JSON and test three properties\r",
									"    const responseJson = pm.response.json();\r",
									"    pm.expect(responseJson.org_name).to.be.a('string');\r",
									"    pm.expect(responseJson.course_name).to.be.a('string');\r",
									"    pm.expect(responseJson.year).to.be.a('number');\r",
									"});\r",
									"pm.test(\"проверка name\",() => {\r",
									"  pm.expect(pm.response.text()).to.include(\"id\");\r",
									"  pm.expect(pm.response.text()).to.include(\"org_name\");\r",
									"  pm.expect(pm.response.text()).to.include(\"course_name\");\r",
									"  pm.expect(pm.response.text()).to.include(\"year\");\r",
									"});\r",
									"\r",
									"pm.test(\"Content-Type is located in the header\", () => {\r",
									"  pm.response.to.have.header(\"Content-Type\");\r",
									"});\r",
									"pm.test(\"Content-Type is equals 'application/json' \", () => {\r",
									"  pm.expect(pm.response.headers.get('Content-Type')).to.eql('application/json');\r",
									"});\r",
									""
								],
								"type": "text/javascript"
							}
						}
					],
					"request": {
						"auth": {
							"type": "bearer",
							"bearer": [
								{
									"key": "token",
									"value": "{{Authorization}}",
									"type": "string"
								}
							]
						},
						"method": "GET",
						"header": [],
						"url": {
							"raw": "http://test:81/api/candidates/1/courses/1",
							"protocol": "http",
							"host": [
								"test"
							],
							"port": "81",
							"path": [
								"api",
								"candidates",
								"1",
								"courses",
								"1"
							]
						}
					},
					"response": []
				},
				{
					"name": "проверка образование",
					"event": [
						{
							"listen": "test",
							"script": {
								"exec": [
									"pm.test(\"проверка value \", () => {\r",
									"  const responseJson = pm.response.json();\r",
									"  pm.expect(responseJson.university).to.eql('томский политехнический университет');\r",
									"  pm.expect(responseJson.specialty).to.eql('Ахс');\r",
									"  pm.expect(responseJson.type_education).to.eql('Магистратура');\r",
									"  pm.expect(responseJson.average_score).to.eql(4.7);\r",
									"  pm.expect(responseJson.diplom_topic).to.eql('разработка');\r",
									"  pm.expect(responseJson.end_study).to.eql(2019);\r",
									"});\r",
									"pm.test(\"проверка type\", () => {\r",
									"    //parse the response JSON and test three properties\r",
									"    const responseJson = pm.response.json();\r",
									"    pm.expect(responseJson.university).to.be.a('string');\r",
									"    pm.expect(responseJson.specialty).to.be.a('string');\r",
									"    pm.expect(responseJson.type_education).to.be.a('string');\r",
									"    pm.expect(responseJson.average_score).to.be.a('number');\r",
									"    pm.expect(responseJson.diplom_topic).to.be.a('string');\r",
									"    pm.expect(responseJson.end_study).to.be.a('number');\r",
									"});\r",
									"pm.test(\"проверка name\",() => {\r",
									"  pm.expect(pm.response.text()).to.include(\"id\");\r",
									"  pm.expect(pm.response.text()).to.include(\"university\");\r",
									"  pm.expect(pm.response.text()).to.include(\"specialty\");\r",
									"  pm.expect(pm.response.text()).to.include(\"type_education\");\r",
									"  pm.expect(pm.response.text()).to.include(\"average_score\");\r",
									"  pm.expect(pm.response.text()).to.include(\"diplom_topic\");\r",
									"  pm.expect(pm.response.text()).to.include(\"end_study\");\r",
									"});\r",
									"\r",
									"\r",
									"pm.test(\"Content-Type is located in the header\", () => {\r",
									"  pm.response.to.have.header(\"Content-Type\");\r",
									"});\r",
									"pm.test(\"Content-Type is equals 'application/json' \", () => {\r",
									"  pm.expect(pm.response.headers.get('Content-Type')).to.eql('application/json');\r",
									"});\r",
									""
								],
								"type": "text/javascript"
							}
						}
					],
					"request": {
						"auth": {
							"type": "bearer",
							"bearer": [
								{
									"key": "token",
									"value": "{{Authorization}}",
									"type": "string"
								}
							]
						},
						"method": "GET",
						"header": [],
						"url": {
							"raw": "http://test:81/api/candidates/1/educations/1",
							"protocol": "http",
							"host": [
								"test"
							],
							"port": "81",
							"path": [
								"api",
								"candidates",
								"1",
								"educations",
								"1"
							]
						}
					},
					"response": []
				}
			]
		}
	],
	"event": [
		{
			"listen": "prerequest",
			"script": {
				"type": "text/javascript",
				"exec": [
					""
				]
			}
		},
		{
			"listen": "test",
			"script": {
				"type": "text/javascript",
				"exec": [
					""
				]
			}
		}
	]
}